<?xml version="1.0" encoding="UTF-8" standalone="no"?>
<!-- Created with Inkscape (http://www.inkscape.org/) -->

<svg
   xmlns:dc="http://purl.org/dc/elements/1.1/"
   xmlns:cc="http://creativecommons.org/ns#"
   xmlns:rdf="http://www.w3.org/1999/02/22-rdf-syntax-ns#"
   xmlns:svg="http://www.w3.org/2000/svg"
   xmlns="http://www.w3.org/2000/svg"
   xmlns:sodipodi="http://sodipodi.sourceforge.net/DTD/sodipodi-0.dtd"
   xmlns:inkscape="http://www.inkscape.org/namespaces/inkscape"
   width="13.546667mm"
   height="13.546667mm"
   viewBox="0 0 48.000002 48.000001"
   id="svg7419"
   version="1.1"
   inkscape:version="0.91 r13725"
   sodipodi:docname="regulation.svg">
  <defs
     id="defs7421" />
  <sodipodi:namedview
     id="base"
     pagecolor="#ffffff"
     bordercolor="#666666"
     borderopacity="1.0"
     inkscape:pageopacity="0.0"
     inkscape:pageshadow="2"
     inkscape:zoom="2.8"
     inkscape:cx="47.702121"
     inkscape:cy="33.683666"
     inkscape:document-units="px"
     inkscape:current-layer="layer1"
     showgrid="false"
     fit-margin-top="0"
     fit-margin-left="0"
     fit-margin-right="0"
     fit-margin-bottom="0"
     inkscape:window-width="1301"
     inkscape:window-height="744"
     inkscape:window-x="65"
     inkscape:window-y="24"
     inkscape:window-maximized="1" />
  <metadata
     id="metadata7424">
    <rdf:RDF>
      <cc:Work
         rdf:about="">
        <dc:format>image/svg+xml</dc:format>
        <dc:type
           rdf:resource="http://purl.org/dc/dcmitype/StillImage" />
        <dc:title></dc:title>
      </cc:Work>
    </rdf:RDF>
  </metadata>
  <g
     inkscape:label="Calque 1"
     inkscape:groupmode="layer"
     id="layer1"
     transform="translate(-244.00613,-600.8454)">
    <g
       id="g7983">
      <g
         transform="matrix(0.83455424,0,0,0.83634976,-1302.2613,608.25891)"
         id="g6197"
         style="display:inline">
        <circle
           style="display:inline;opacity:1;fill:#fafafa;fill-opacity:1;stroke:#0f3dfa;stroke-width:2.4000001;stroke-linecap:round;stroke-miterlimit:4;stroke-dasharray:none;stroke-dashoffset:0;stroke-opacity:1"
           id="path5962-9-0-9-9-3-4-3-8-9-0-6-0-7"
           cx="1881.5642"
           cy="19.832012"
           r="26.355827" />
        <g
           id="g6191"
           transform="matrix(0.67114759,0,0,0.67114759,671.42121,47.981398)">
          <path
             inkscape:connector-curvature="0"
             id="path6187"
             d="m 1792.0313,-55.997169 0.2343,30.703125 29.5313,0.46875 0.4687,-32.8125 z"
             style="fill:#f4ebac;fill-opacity:1;stroke:#000000;stroke-width:0.9375px;stroke-linecap:butt;stroke-linejoin:miter;stroke-opacity:1" />
          <path
             style="fill:#505078;fill-opacity:1;stroke-width:0.6208266"
             id="path38323"
             d="m 1830.3426,-21.312728 c -3.3667,-0.969728 -4.0738,-6.510607 -4.0738,-10.990491 l 0,-22.852624 c 0,-5.902819 -2.8987,-9.286327 -7.9541,-9.286327 l -36.9081,0 c 0,0 0,0 0,0 -3.5618,0.0013 -6.2487,2.416257 -6.2487,5.6191 0,2.899263 2.2865,5.003862 5.4341,5.003862 2.4852,0 4.0907,-1.363335 4.0907,-3.474761 0,-1.735216 -1.4118,-3.146972 -3.1489,-3.146972 -1.372,0 -2.4895,1.116243 -2.4895,2.488895 0,0.527077 0.4271,0.952345 0.9523,0.952345 0.5265,0 0.9524,-0.425884 0.9524,-0.952345 0,-0.322214 0.2626,-0.583577 0.5842,-0.583577 0.686,0 1.2441,0.557499 1.2441,1.242269 0,1.365819 -1.3689,1.56945 -2.1859,1.56945 -1.6992,0 -3.5294,-0.97035 -3.5294,-3.098544 0,-2.117015 1.8687,-3.712543 4.3458,-3.712543 4.0124,0 6.0474,2.483307 6.0474,7.381632 l 0,22.853246 c 0,7.466679 1.8346,11.77956 5.4509,12.820065 0.086,0.02669 0.1745,0.03788 0.2645,0.03788 l 36.9081,0 c 0.4749,0 0.8772,-0.349524 0.9443,-0.818246 0.066,-0.473073 -0.2235,-0.920068 -0.6792,-1.052306 z m -31.0997,-8.484835 0,0 c -6e-4,0.129755 -0.1067,0.237775 -0.239,0.237775 l -2.857,0 c -0.1323,0 -0.2384,-0.10802 -0.2384,-0.237775 l 0,-2.858285 c 0,-0.132238 0.1061,-0.238398 0.2384,-0.238398 l 2.8576,0 c 0.1323,0 0.2384,0.10616 0.2384,0.238398 z m 0,-7.144472 0,0 c -6e-4,0.130993 -0.1067,0.23902 -0.239,0.23902 l -2.857,0 c -0.1323,0 -0.2384,-0.108027 -0.2384,-0.23902 l 0,-2.857663 c 0,-0.132238 0.1061,-0.238397 0.2384,-0.238397 l 2.8576,0 c 0.1323,0 0.2384,0.106159 0.2384,0.238397 z m 0,-7.14385 0,0 c -6e-4,0.132238 -0.1067,0.238398 -0.239,0.238398 l -2.857,0 c -0.1323,0 -0.2384,-0.10616 -0.2384,-0.238398 l 0,-2.857663 c 0,-0.132238 0.1061,-0.238397 0.2384,-0.238397 l 2.8576,0 c 0.1323,0 0.2384,0.106159 0.2384,0.238397 z m 0,-7.14385 0,0 c -6e-4,0.132231 -0.1067,0.238397 -0.239,0.238397 l -2.857,0 c -0.1323,0 -0.2384,-0.106166 -0.2384,-0.238397 l 0,-2.85767 c 0,-0.131615 0.1061,-0.237775 0.2384,-0.237775 l 2.8576,0 c 0.1323,0 0.2384,0.10616 0.2384,0.237775 z m 18.5727,21.432172 c 0,0.129755 -0.1061,0.237775 -0.2384,0.237775 l -15.2394,0 c -0.1323,0 -0.2384,-0.10802 -0.2384,-0.237775 l 0,-2.858285 c 0,-0.132238 0.1061,-0.238398 0.2384,-0.238398 l 15.2394,0 c 0.1323,0 0.2384,0.10616 0.2384,0.238398 z m 0,-7.144472 c 0,0.130993 -0.1061,0.23902 -0.2384,0.23902 l -15.2394,0 c -0.1323,0 -0.2384,-0.108027 -0.2384,-0.23902 l 0,-2.857663 c 0,-0.132238 0.1061,-0.238397 0.2384,-0.238397 l 15.2394,0 c 0.1323,0 0.2384,0.106159 0.2384,0.238397 z m 0,-7.14385 c 0,0.132238 -0.1061,0.238398 -0.2384,0.238398 l -15.2394,0 c -0.1323,0 -0.2384,-0.10616 -0.2384,-0.238398 l 0,-2.857663 c 0,-0.132238 0.1061,-0.238397 0.2384,-0.238397 l 15.2394,0 c 0.1323,0 0.2384,0.106159 0.2384,0.238397 z m 0,-7.14385 c 0,0.132231 -0.1061,0.238397 -0.2384,0.238397 l -15.2394,0 c -0.1323,0 -0.2384,-0.106166 -0.2384,-0.238397 l 0,-2.85767 c 0,-0.131615 0.1061,-0.237775 0.2384,-0.237775 l 15.2394,0 c 0.1323,0 0.2384,0.10616 0.2384,0.237775 z"
             inkscape:connector-curvature="0" />
        </g>
      </g>
      <rect
         y="600.8454"
         x="244.00613"
         height="48"
         width="48"
         id="rect7981"
         style="opacity:1;fill:none;fill-opacity:1;fill-rule:nonzero;stroke:none;stroke-width:4;stroke-linecap:butt;stroke-linejoin:round;stroke-miterlimit:4;stroke-dasharray:none;stroke-dashoffset:0;stroke-opacity:1" />
    </g>
  </g>
</svg>
