<?xml version="1.0" encoding="UTF-8" standalone="no"?>
<!-- Created with Inkscape (http://www.inkscape.org/) -->

<svg
   xmlns:dc="http://purl.org/dc/elements/1.1/"
   xmlns:cc="http://creativecommons.org/ns#"
   xmlns:rdf="http://www.w3.org/1999/02/22-rdf-syntax-ns#"
   xmlns:svg="http://www.w3.org/2000/svg"
   xmlns="http://www.w3.org/2000/svg"
   xmlns:sodipodi="http://sodipodi.sourceforge.net/DTD/sodipodi-0.dtd"
   xmlns:inkscape="http://www.inkscape.org/namespaces/inkscape"
   width="48"
   height="48"
   viewBox="0 0 45 45.000001"
   id="svg4958"
   version="1.1"
   inkscape:version="0.92.1 r15371"
   sodipodi:docname="etablissement-public.svg"
   inkscape:export-filename="D:\0-0-Agata\graphik\pictogrammes\Pictos-fonctions\picto-loupe.png"
   inkscape:export-xdpi="300"
   inkscape:export-ydpi="300">
  <defs
     id="defs4960" />
  <sodipodi:namedview
     id="base"
     pagecolor="#ffffff"
     bordercolor="#666666"
     borderopacity="1.0"
     inkscape:pageopacity="0.0"
     inkscape:pageshadow="2"
     inkscape:zoom="7.9195959"
     inkscape:cx="1.9929543"
     inkscape:cy="29.762198"
     inkscape:document-units="px"
     inkscape:current-layer="layer1"
     showgrid="true"
     units="px"
     inkscape:window-width="1366"
     inkscape:window-height="705"
     inkscape:window-x="-8"
     inkscape:window-y="-8"
     inkscape:window-maximized="1">
    <inkscape:grid
       type="xygrid"
       id="grid6185"
       originx="0"
       originy="0"
       spacingx="1"
       spacingy="1" />
  </sodipodi:namedview>
  <metadata
     id="metadata4963">
    <rdf:RDF>
      <cc:Work
         rdf:about="">
        <dc:format>image/svg+xml</dc:format>
        <dc:type
           rdf:resource="http://purl.org/dc/dcmitype/StillImage" />
        <dc:title></dc:title>
      </cc:Work>
    </rdf:RDF>
  </metadata>
  <g
     inkscape:label="Calque 1"
     inkscape:groupmode="layer"
     id="layer1"
     transform="translate(0,-1007.3622)">
    <rect
       style="opacity:1;fill:none;fill-opacity:1;stroke:none;stroke-width:1.95103896;stroke-linecap:round;stroke-linejoin:round;stroke-miterlimit:4;stroke-dasharray:none;stroke-dashoffset:0;stroke-opacity:1"
       id="rect5524-3"
       width="45"
       height="45"
       x="-47.501274"
       y="1008.649" />
    <path
       style="display:inline;fill:none;fill-rule:evenodd;stroke:none;stroke-width:0.60000008px;stroke-linecap:butt;stroke-linejoin:miter;stroke-opacity:1"
       d="M -20.20591,1022.9818 H 9.5578782 v 29.7638 H -20.20591 Z"
       id="path5102-0"
       inkscape:connector-curvature="0"
       inkscape:export-filename="D:\0-0-Opacite\graphik\pictogrammes\Déf\Sénat.png"
       inkscape:export-xdpi="300"
       inkscape:export-ydpi="300" />
    <g
       id="g25912"
       transform="translate(-0.51321054,-0.76987958)">
      <rect
         inkscape:export-ydpi="300"
         inkscape:export-xdpi="300"
         inkscape:export-filename="D:\0-0-Agata\graphik\pictogrammes\Déf-1\visu.png"
         y="1008.1321"
         x="0.51321054"
         height="45"
         width="45"
         id="rect5524"
         style="opacity:1;fill:none;fill-opacity:1;stroke:none;stroke-width:1.95103896;stroke-linecap:round;stroke-linejoin:round;stroke-miterlimit:4;stroke-dasharray:none;stroke-dashoffset:0;stroke-opacity:1" />
      <rect
         inkscape:export-ydpi="300"
         inkscape:export-xdpi="300"
         inkscape:export-filename="D:\0-0-Agata\graphik\pictogrammes\Déf-1\visu.png"
         y="1008.1321"
         x="0.51321054"
         height="45"
         width="45"
         id="rect5524-31"
         style="opacity:1;fill:none;fill-opacity:1;stroke:none;stroke-width:1.95103896;stroke-linecap:round;stroke-linejoin:round;stroke-miterlimit:4;stroke-dasharray:none;stroke-dashoffset:0;stroke-opacity:1" />
      <g
         transform="matrix(0.57499996,0,0,0.57499996,-566.8415,1627.9412)"
         id="g21302"
         style="display:inline">
        <circle
           style="display:inline;opacity:1;fill:#fafafa;fill-opacity:1;stroke:#34a400;stroke-width:3.26609707;stroke-linecap:round;stroke-miterlimit:4;stroke-dasharray:none;stroke-dashoffset:0;stroke-opacity:1"
           id="path5962-9-0-9-9-3-4-3-8-9-0-6-0-8-7-1-11"
           cx="1025.8344"
           cy="-1038.7986"
           r="35.866955" />
        <g
           id="g21274"
           transform="matrix(0.57579172,0,0,0.57579172,425.54984,-430.43764)">
          <polygon
             style="fill:#505050;fill-opacity:1"
             transform="matrix(3.5795455,0,0,3.5795455,999.58294,-1110.9898)"
             points="23,6 12,1 1,6 1,8 23,8 "
             id="polygon10962" />
          <g
             style="fill:#505050;fill-opacity:1"
             id="g11573"
             transform="matrix(0.1875,0,0,0.1875,994.54686,-1099.3877)">
            <path
               style="fill:#505050;fill-opacity:1"
               id="path11569"
               d="m 68.5,68.5 v 375 H 199.7 V 312.2 H 312.2 V 443.5 H 443.4 V 68.5 Z M 181,256 H 143.5 V 218.5 H 181 Z m 0,-75 H 143.5 V 143.5 H 181 Z m 93.7,75 h -37.5 v -37.5 h 37.5 z m 0,-75 h -37.5 v -37.5 h 37.5 z m 93.8,75 H 331 v -37.5 h 37.5 z m 0,-75 H 331 v -37.5 h 37.5 z"
               inkscape:connector-curvature="0" />
            <rect
               style="fill:#505050;fill-opacity:1"
               id="rect11571"
               height="93.699997"
               width="37.5"
               y="349.79999"
               x="237.3" />
          </g>
        </g>
      </g>
    </g>
  </g>
</svg>
